…
This package currently offers some basic spatial operations, and more will be added in the future. [See docs for more info and examples](https://acgold.github.io/SimpleFeatures.jl/dev/).

This package creates a `SimpleFeature` custom type that effectively functions as a DataFrame containing feature data but also contains projection and geometry type info. 

**Example:**

```julia
SimpleFeature
---------
geomtype:  wkbPolygon
crs:       PROJCRS["NAD83(2011) / UTM zone 17N",BASEGEOGCRS["NAD83(2011)",DATUM["NAD83 (National Spatial Refere..."
---------
features:  
1000×2 DataFrame
  Row │ geom                          lyr.1 
      │ sfgeom                        Int32 
──────┼─────────────────────────────────────
    1 │ POLYGON ((853787 3905499,...      1
    2 │ POLYGON ((853800 3905499,...      1
    3 │ POLYGON ((853803 3905499,...      1
  ⋮   │              ⋮                  ⋮
  998 │ POLYGON ((904045 3905468,...      1
  999 │ POLYGON ((905355 3905468,...      1
 1000 │ POLYGON ((905561 3905469,...      1
                            994 rows omitted
```
…
