# How it works

## GIS data as a DataFrame

`SimpleFeatures` reads vector GIS data from files and creates a [DataFrame](https://dataframes.juliadata.org/stable/) containing geometries and their attributes. 

Each row is a feature, and geometry data for each feature are stored in the `geom` column. 

**Example:**

```julia
1000×2 DataFrame
  Row │ geom                          lyr.1 
      │ sfgeom                        Int32 
──────┼─────────────────────────────────────
    1 │ POLYGON ((853787 3905499,...      1
    2 │ POLYGON ((853800 3905499,...      1
    3 │ POLYGON ((853803 3905499,...      1
  ⋮   │              ⋮                  ⋮
  998 │ POLYGON ((904045 3905468,...      1
  999 │ POLYGON ((905355 3905468,...      1
 1000 │ POLYGON ((905561 3905469,...      1
                            994 rows omitted
```
…
