Home · SimpleFeatures.jl
…
SimpleFeature
---------
geomtype:  wkbPolygon
crs:       PROJCRS["NAD83(2011) / UTM zone 17N",BASEGEOGCRS["NAD83(2011)",DATUM["NAD83 (National Spatial Refere..."
---------
features:  
1000×2 DataFrame
  Row │ geom                          lyr.1 
      │ sfgeom                        Int32 
──────┼─────────────────────────────────────
    1 │ POLYGON ((853787 3905499,...      1
    2 │ POLYGON ((853800 3905499,...      1
    3 │ POLYGON ((853803 3905499,...      1
  ⋮   │              ⋮                  ⋮
  998 │ POLYGON ((904045 3905468,...      1
  999 │ POLYGON ((905355 3905468,...      1
 1000 │ POLYGON ((905561 3905469,...      1
                            994 rows omitted
…
import SimpleFeatures as sf
Read & write data
Most GIS types can be read and written using the functions st_read and st_write, respectively.

x = sf.st_read("data/test.gpkg")

SimpleFeature
---------
geomtype:  wkbPolygon
crs:       PROJCRS["NAD83(2011) / UTM zone 17N",BASEGEOGCRS["NAD83(2011)",DATUM["NAD83 (National Spatial Refere..."
---------
features:  
1000×2 DataFrame
  Row │ geom                          lyr.1 
      │ sfgeom                        Int32 
──────┼─────────────────────────────────────
    1 │ POLYGON ((853787 3905499,...      1
    2 │ POLYGON ((853800 3905499,...      1
    3 │ POLYGON ((853803 3905499,...      1
  ⋮   │              ⋮                  ⋮
  998 │ POLYGON ((904045 3905468,...      1
  999 │ POLYGON ((905355 3905468,...      1
 1000 │ POLYGON ((905561 3905469,...      1
                            994 rows omitted
…
lines = sf.st_cast(df, "linestring")

SimpleFeature
---------
geomtype:  wkbLineString
crs:       PROJCRS["NAD83(2011) / UTM zone 17N",BASEGEOGCRS["NAD83(2011)",DATUM["NAD83 (National Spatial Refere..."
---------
features:  
1022×3 DataFrame
  Row │ lyr.1  _MultiLineStringID  geom                         
      │ Int32  Int64               sfgeom                       
──────┼─────────────────────────────────────────────────────────
    1 │     1                   1  LINESTRING (853787 390549...
    2 │     1                   2  LINESTRING (853800 390549...
    3 │     1                   3  LINESTRING (853803 390549...
  ⋮   │   ⋮            ⋮                        ⋮
 1020 │     1                 998  LINESTRING (904045 390546...
 1021 │     1                 999  LINESTRING (905355 390546...
 1022 │     1                1000  LINESTRING (905561 390546...
                                               1016 rows omitted
Buffer
Using the linestrings from the st_cast example above, we will add a 10m buffer.

buffered_lines = sf.st_buffer(lines, 10) # buffer distance is in units of the crs. Meters in this example

SimpleFeature
---------
geomtype:  wkbPolygon
crs:       PROJCRS["NAD83(2011) / UTM zone 17N",BASEGEOGCRS["NAD83(2011)",DATUM["NAD83 (National Spatial Refere..."
---------
features:  
1022×3 DataFrame
  Row │ lyr.1  _MultiLineStringID  geom                         
      │ Int32  Int64               sfgeom                       
──────┼─────────────────────────────────────────────────────────
    1 │     1                   1  POLYGON ((853787 3905509,...
    2 │     1                   2  POLYGON ((853800 3905509,...
    3 │     1                   3  POLYGON ((853803 3905509,...
  ⋮   │   ⋮            ⋮                        ⋮
 1020 │     1                 998  POLYGON ((904045 3905478,...
 1021 │     1                 999  POLYGON ((905355 3905478,...
 1022 │     1                1000  POLYGON ((905556.62823740...
                                               1016 rows omitted
Reproject
Let's reproject the polygons we just made with st_buffer.

reprojected_buffer = sf.st_transform(x, GeoFormatTypes.EPSG(5070))

SimpleFeature
---------
geomtype:  wkbPolygon
crs:   5070
---------
features:  
1000×2 DataFrame
  Row │ lyr.1  geom                         
      │ Int32  sfgeom                       
──────┼─────────────────────────────────────
    1 │     1  POLYGON ((1693276.9257186...
    2 │     1  POLYGON ((1693289.637015 ...
    3 │     1  POLYGON ((1693292.5703908...
  ⋮   │   ⋮                 ⋮
  998 │     1  POLYGON ((1742412.4620032...
  999 │     1  POLYGON ((1743692.7581942...
 1000 │     1  POLYGON ((1743893.9246629...
                            994 rows omitted
How it works
GIS data as a DataFrame
SimpleFeatures reads vector GIS data from files and creates a DataFrame containing geometries and their attributes. 
Each row is a feature, and geometry data for each feature are stored in the geom column. 
Example:

1000×2 DataFrame
  Row │ geom                          lyr.1 
      │ sfgeom                        Int32 
──────┼─────────────────────────────────────
    1 │ POLYGON ((853787 3905499,...      1
    2 │ POLYGON ((853800 3905499,...      1
    3 │ POLYGON ((853803 3905499,...      1
  ⋮   │              ⋮                  ⋮
  998 │ POLYGON ((904045 3905468,...      1
  999 │ POLYGON ((905355 3905468,...      1
 1000 │ POLYGON ((905561 3905469,...      1
                            994 rows omitted
…
